# FluSM is calculated for each plot specified within this file.		
# Therefore, the parameter icap must be provided. 		
# Furthermore, a sensor must be specified for which a soil moiture time series exists (corespondingly named column in the soil moisture file). 		
plot	sensor	icap
#	name of sensor	infiltration capacity [mm/h]
CP15	G2_a	0.37
CP14	A2_a	1.79
CP13	A4_a	2.73
CP12	C1_a	141.19
CP11	G1_a	8.9
NP10	D3_a	21.37
NP9	B1_a	754.25
NP8	D2_a	23.29
NP7	D1_a	12.89
NP6	F2_a	73.85
NP5	E1_a	117.14
NP4	F1_a	73.85
NP3	E2_a	117.14
CP2	C2_a	1133.29
GP1	A3_a	109.92
